2nd Semester/Digital System Design/1st Project/1st Project/simulation/qsim/Ask2.msim.vcd
$comment
	File created using the following command:
		vcd file Ask2.msim.vcd -direction
$end
$date
	Tue Apr 12 14:02:48 2022
$end
$version
	ModelSim Version 10.5b
$end
$timescale
	1ps
$end

$scope module Ask2_vlg_vec_tst $end
$var reg 1 ! x1 $end
$var reg 1 " x2 $end
$var reg 1 # x3 $end
$var reg 1 $ x4 $end
$var wire 1 % f $end

$scope module i1 $end
$var wire 1 & gnd $end
$var wire 1 ' vcc $end
$var wire 1 ( unknown $end
$var tri1 1 ) devclrn $end
$var tri1 1 * devpor $end
$var tri1 1 + devoe $end
$var wire 1 , x3~combout $end
$var wire 1 - x2~combout $end
$var wire 1 . x1~combout $end
$var wire 1 / x4~combout $end
$var wire 1 0 inst9~0_combout $end
$upscope $end
$upscope $end
$enddefinitions $end
#0
$dumpvars
0!
0"
0#
0$
0%
0&
1'
x(
1)
1*
1+
0,
0-
0.
0/
00
$end
#20000
1$
1/
#40000
1#
0$
1,
0/
#60000
1$
1/
10
1%
#80000
1"
0#
0$
1-
0,
0/
00
0%
#100000
1$
1/
10
1%
#120000
1#
0$
1,
0/
#140000
1$
1/
00
0%
#160000
1!
0"
0#
0$
1.
0-
0,
0/
#180000
1$
1/
#200000
1#
0$
1,
0/
#220000
1$
1/
#240000
1"
0#
0$
1-
0,
0/
#260000
1$
1/
#280000
1#
0$
1,
0/
#300000
1$
1/
